LineNumber,VariableName,Type,Description
1,m,vector<float>,Bottom quark (W/Z/h) mass
2,px,vector<float>,Bottom quark (W/Z/h) x-momentum
3,py,vector<float>,Bottom quark (W/Z/h) y-momentum
4,pz,vector<float>,Bottom quark (W/Z/h) z-momentum
5,e,vector<float>,Bottom quark (W/Z/h) energy
6,pdgId,vector<int>,Bottom quark PDG identification
7,barcode,vector<int>,Bottom quark barcode (unique identifier)
8,status,vector<int>,Bottom quark status
9,classifierParticleOrigin,vector<unsigned int>,Classification of b-quark origin from MCTC
10,classifierParticleType,vector<unsigned int>,Classification of b-quark type from MCTC
11,classifierParticleOutCome,vector<unsigned int>,Classification of b-quark outcome from MCTC
12,Classification,vector<unsigned int>,Classification of b-quark based on new MCTC (Monte Carlo Truth Classifier)
13,prodVtxLink,vector<ElementLink<DataVector<xAOD::TruthVertex_v1> > >,Truth bottom production vertex
14,decayVtxLink,vector<ElementLink<DataVector<xAOD::TruthVertex_v1> > >,Truth bottom decay vertex
15,parentLinks,vector<vector<ElementLink<DataVector<xAOD::TruthParticle_v1> > > >,Parents of truth bottom quarks
16,childLinks,vector<vector<ElementLink<DataVector<xAOD::TruthParticle_v1> > > >,Children of truth bottom quarks
17,polarizationPhi,vector<float>,Truth bottom polarization in phi
18,polarizationTheta,vector<float>,Truth bottom polarization in theta
